<svg width="15" height="11" viewBox="0 0 15 11" fill="none" xmlns="http://www.w3.org/2000/svg">
<path d="M15 5.07692L10.7143 5.07692L10.7143 0L4.28571 0L4.28571 5.07692L0 5.07692L7.5 11L15 5.07692Z" fill="#E02020"/>
</svg>
